hs605_problemset1
…
Code

# 2) Cases with L_caudate < 160
subset_lc_lt_160 <- schizo %>%
  dplyr::filter(!is.na(l_caudate), l_caudate < 160)
print(subset_lc_lt_160)

# A tibble: 40 × 66
   subject   age    dx   sex fs_iq     tbv    gmv    wmv    csf background
     <int> <dbl> <int> <int> <dbl>   <int>  <int>  <int>  <int>      <int>
 1     106    15     1     1   116 1583940 527918 851560 204463    8586107
 2     139    14     1     2   107 1299470 550035 614598 134837    8627510
 3     143    15     1     1   107 1535137 599372 780127 155638    8607550
 4     172    15     1     2   107 1431890 593306 695296 143288    8617899
 5     184    15     1     1   100 1578698 822056 546395 210247    8593510
 6     198    10     1     1   114 1650348 608916 860876 180555    8631722
 7     199    15     1     2   107 1288971 479707 668576 140688    8629619
 8     402    19     1     1    95 1366346 699476 479998 186872    8624830
 9     403    18     1     2   109 1326402 438889 725969 161544    8641084
10     406    18     1     1   125 1503005 711924 595506 195575    8615606
# ℹ 30 more rows
# ℹ 56 more variables: l_superior_frontal_gyrus <int>,
#   r_superior_frontal_gyrus <int>, l_middle_frontal_gyrus <int>,
#   r_middle_frontal_gyrus <int>, l_inferior_frontal_gyrus <int>,
#   r_inferior_frontal_gyrus <int>, l_precentral_gyrus <int>,
#   r_precentral_gyrus <int>, l_middle_orbitofrontal_gyrus <int>,
#   r_middle_orbitofrontal_gyrus <int>, l_lateral_orbitofrontal_gyrus <int>, …
…
